…
|  estimate |  conf.low | conf.high |
|----------:|----------:|----------:|
| 0.6455607 | 0.6275625 | 0.6631599 |

``` r
city_test = homicide_df |>
  mutate(prop_test = map2(unsolved_homicides, total_homicides, ~ prop.test(.x, .y) |>
                            broom::tidy())) |>
  unnest(prop_test) |>
  select(city_state, total_homicides, unsolved_homicides, estimate, conf.low, conf.high)
city_test
```

    ## # A tibble: 51 × 6
    ##    city_state     total_homicides unsolved_homicides estimate conf.low conf.high
    ##    <chr>                    <int>              <int>    <dbl>    <dbl>     <dbl>
    ##  1 Albuquerque, …             378                146    0.386    0.337     0.438
    ##  2 Atlanta, GA                973                373    0.383    0.353     0.415
    ##  3 Baltimore, MD             2827               1825    0.646    0.628     0.663
    ##  4 Baton Rouge, …             424                196    0.462    0.414     0.511
    ##  5 Birmingham, AL             800                347    0.434    0.399     0.469
    ##  6 Boston, MA                 614                310    0.505    0.465     0.545
    ##  7 Buffalo, NY                521                319    0.612    0.569     0.654
    ##  8 Charlotte, NC              687                206    0.300    0.266     0.336
    ##  9 Chicago, IL               5535               4073    0.736    0.724     0.747
    ## 10 Cincinnati, OH             694                309    0.445    0.408     0.483
    ## # ℹ 41 more rows
…
